%YAML 1.1
%TAG !u! tag:unity3d.com,2011:
--- !u!78 &1
TagManager:
  serializedVersion: 2
  tags:
  - Obstacle
  layers:
  - Default
  - TransparentFX
  - Ignore Raycast
  - 
  - Water
  - UI
  - 
  - 
  - Enemy
  - Player
  - EnemyBullet
  - PlayerBullet
  - 
  - 
  - 
  - 
  - 
  - 
  - 
  - 
  - 
  - 
  - 
  - 
  - 
  - 
  - 
  - 
  - 
  - 
  - 
  - 
  m_SortingLayers:
  - name: Ground
    uniqueID: 4046674451
    locked: 0
  - name: Walls
    uniqueID: 4151906123
    locked: 0
  - name: Objects
    uniqueID: 607387591
    locked: 0
  - name: Characters
    uniqueID: 4282625615
    locked: 0
  - name: Default
    uniqueID: 0
    locked: 0
